[
                              {
          "sub_merchant_id": "38",
          "sub_merchant_nama": "Speedy",
          "img_path": "http://fb.elasitas.com/dompetku/images/sub_merchant/brand-speedy.png"
        }
      ]