[
                           {
          "sub_merchant_id": "27",
          "sub_merchant_nama": "Adira Finance",
          "img_path": "http://fb.elasitas.com/dompetku/images/sub_merchant/brand-adira-finance.png"
        },
        {
          "sub_merchant_id": "28",
          "sub_merchant_nama": "WOM Finance",
          "img_path": "http://fb.elasitas.com/dompetku/images/sub_merchant/brand-wom.png"
        }
      ]